module gitlab.com/praslar/cloud0

go 1.16

require (
	github.com/caarlos0/env/v6 v6.7.2
	github.com/gin-gonic/gin v1.7.4
	github.com/go-errors/errors v1.4.1
	github.com/go-playground/validator/v10 v10.9.0
	github.com/google/uuid v1.3.0
	github.com/modern-go/concurrent v0.0.0-20180306012644-bacd9c7ef1dd // indirect
	github.com/modern-go/reflect2 v1.0.1 // indirect
	github.com/sirupsen/logrus v1.8.1
	github.com/stretchr/testify v1.7.0
	gorm.io/driver/postgres v1.1.2
	gorm.io/driver/sqlite v1.1.6
	gorm.io/gorm v1.21.16
)
